{
  "schemaVersion": 1,
  "id": "moltencore-tools",
  "version": "${version}",

  "name": "MoltenCore - Tools",
  "description": "It's a mod",
  "authors": [
    "Layl Bongers"
  ],
  "contact": {
    "homepage": "https://gitlab.com/braindemons/moltencore",
    "sources": "https://gitlab.com/braindemons/moltencore"
  },

  "license": "MIT OR Apache-2.0",
  "icon": "assets/moltencore-tools/icon.png",

  "environment": "*",
  "entrypoints": {
    "main": [
      "net.braindemons.moltencore.tools.InitKt::init"
    ]
  },
  "mixins": [
    "moltencore_tools.mixins.json"
  ],
  "depends": {
    "fabricloader": ">=0.4.0",
    "fabric": "*",
    "fabric-language-kotlin": "*",
    "cotton-logging": "*"
  },
  "suggests": {
    "flamingo": "*"
  }
}
