{
  "required": true,
  "package": "net.braindemons.moltencore.tools.mixin",
  "compatibilityLevel": "JAVA_8",
  "mixins": [
    "BlockMixin"
  ],
  "client": [
  ],
  "injectors": {
    "defaultRequire": 1
  }
}
