{
  "required": true,
  "package": "net.braindemons.moltencore.mining.mixin",
  "compatibilityLevel": "JAVA_8",
  "mixins": [
    "BlockMixin",
    "ExplosionMixin",
    "LootContextTypeMixin",
    "OreFeatureConfigTargetMixin",
    "OverworldChunkGeneratorConfigMixin"
  ],
  "client": [
  ],
  "injectors": {
    "defaultRequire": 1
  }
}
